number,content
1,Wheeling into an additional year can be scary! Worry less and embrace the Knoxxi love with a million new moments.  A glorious birthday wish from us to you. 
2,"Drive into greatness! don't let life zoom by, wishing you a happy birthday. Love from your friends at knoxxi."
3,"Slow down and smile, sharing your special day with you is an honour to us! Cheers to an exceptional beginning, happy birthday from the entire Knoxxi team. "
4,"Having you with us lifts the weight off our shoulders. Happy birthday to vibrant spirit, just breathe and settle in. Happy birthday, sending tons of love from Knoxxi. "
5,We hope your joy radiates all round. A superb birthday for a superb client. Knoxxi wishes you an incredible birthday🙂
6,You were the treasure on our map. Finding you pieced our puzzle. To new positive adventures we wish you the world and it's greatness on this wonderful birthday. Love from Knoxxi.
7,"Happy birthday from your friends at Knoxxi, if the flowers could sing, we'd deliver an orchestra bouquet. Smile wide and live big! "
8,Raising a toast to you today! Don't forget to dance the night away after a sip for today! A cheerful birthday from Knoxxi.
9,"A milestone unearthed! A new discovery and an addition from earth, wishing you all the good things life has to offer. Happy birthday specially from Knoxxi."
10,"A fabulous client deserves a fabulous deposit of love. We jubilate your tiny stars today! A happy birthday constellation from the Knoxxi universe, dream big!"
11,"Love is far and near, knoxxi raises a cheer. From us to you, simmer the love as the birthday mist fills up. Have a magical birthday. "
12,"Be less of everyone and more of you, keep your glow and never let go. A special birthday as we smile, from Knoxxi to you. "
13,"If we could give you colour we'd gift you a rainbow. May today be more than just 24 hours, may it be minutes and seconds of love, joy and a gratefulness. Happy memorable birthday from everyone at Knoxxi. "
14,"Prosperity, abundance and joy are being delivered to you today. Unwrap the warm wishes from the Knoxxi team, you are special. Have a special birthday."
15,"Inhale our well wishes on this glamorous birthday, knoxxi looks forward to writing the next couple of life's beautiful chapters with you. Happy birthday!"
16,If wishes were stars we'd give you a million galaxies.  Wishing you an enchanting birthday with love from Knoxxi. 
17,"Another year, a new cheer! Happy birthday to a new you, from everyone at Knoxxi. "
18,"knoxxi will love to celebrate you today. Happy birthday dear subscriber, offering you a basket of longevity and grace. Smiles to a beautiful life"
19,"Hip-hip-hurray, like grains of sand on the coast may your blessings remain uncountable. Each one with a shimmering glow! Happy birthday from the knoxxi team."
20,"Dress in harmony, walk in achievement, live with purpose, our birthday wish from us to you. Love knoxxi"
21,"A bouquet arrives at your doorstep today, with roses of growth, a fragrance of excellence and a ribbon dashing in greatness. From knoxxi to you we say, happy birthday!"
22,To a  smart passion filled person we raise glasses and echo HAPPY BIRTHDAY! Knoxxi celebrates with you. 
23,"knoxxi is as thrilled as you, a spontaneous birthday as dreams come true! Shine on."
24,"You create a billion sparkles in our sky, a rare gem as you deserves a super birthday. Full of knoxxi love from all of us. Reach for your stars this additional year!"
25,"On this occasion of yours Knoxxi hopes to keep you smiling, we wish upon you joy, good health and grace. Happy birthday to a wonderful client. "
26,"From your friends at knoxxi, we wish you the merriest of birthdays. Flooding your memory with super positivity. The world is yours, have blast. "
27,If we could sing a song to you today you'd be dancing to an unforgettable tune. Wishing you a birthday of growth and beautiful memories. With love from Knoxxi.
28,All friends at knoxxi raise a glass in celebration of your special day.  Happy birthday happy subscriber! Unbox and unwind .
29,"365 days shall we count? Right or wrong this day is already here. Spreading good cheer as life is so dear. A simple wish from our knoxxi team with love, happy birthday, outlive your fears!"
30,"The entire knoxxi team wishes you a happy grand birthday. It is our sincere wish that extraordinary joy is found in all you desire to accomplish. Another year, give it another try! Cheers"
31,"Hurray it's your birthday, Knoxxi wishes the very best this new year has to offer. Waves of wisdom, sunrays of success and peace as calm as breeze. Happy birthday "
32,"A well defined cherry on top birthday is what Knoxxi wishes you today. Laugh hysterically, eat cake, dine with wine and celebrate! "
33,"Memories are all we have , happy birthday from Knoxxi. You deserve the loudest cheer today! have an incredible heart melting day full of love."
34,"Knoxxi wishes you the merriest of birthday, a confetti of good fortune we pop in celebration of you today"
35,"A day of champagne, relaxation and keep living brand new. Great health and joyous events are yet to unfold. Happy birthday from the team at knoxxi."
36,"Happy birthday special customer, our gift to you is a bouquet of greatness. Knoxxi wishes you the very happiest memories on this day, live like never before. "
37,Milestones are for courageous people. Everyone at knoxxi wishes a super birthday to a super warrior! keep your flame alive. 
38,Nature has gifted a million new moments waiting to be discovered. We hope our existence make it count on this special day. Happy birthday from Knoxxi. 
39,As the sunrise glistens your face today we hope your smile absorbs the warm gifts hidden in it. A birthday with a golden touch sets the bar high. With love Knoxxi. 
40,"If Knoxxi were a tree, you'd be our brightest blooming flower. Wishing you a super birthday with growth sprouts and color. A special wish from the entire team."
41,"You brighten our world, on this birthday we hope your smile ripples through the world. Be happy and enjoy the blessing of a birthday.  Love from Knoxxi."
42,"We celebrate this day with you as the sky is your limit. Endless opportunities with each towering height. Be your best from now forth, a birthday wish in honour of you. From knoxxi. "
43,Slowly is the fastest way to go. We hope this journey reminds you of previous accomplishments and greater ones to come as this extended journey takes you places. Have a happy birthday from all of us at knoxxi. 
44,"knoxxi wishes you a birthday carved in happiness, dipped in joy and sprinkled with success as you attain all you aspire! "
45,"It is our hope that all mountains are conquered.  You a winner dressed in grace, keep winning! Happy birthday from the team at Knoxxi "
46,All friends at knoxxi wish you the happiest of birthdays! May the new year open doors full of graceful moments as endless as stars. 
47,Great achievements come in simple packages. Knoxxi delivers one of laughter on this joyous occasion.  Have a super birthday!
48,"If each day was a page, today's will be the most decorated. With a splash of colour, we  brightsign HAPPY BIRTHDAY from knoxxi. Welcome to a new page!"
49,The highs and lows create memories worth surfing through.  Ride those waves into victory with a broad contagious smile. Happy birthday from knoxxi.
50,"As you unwrap your gifts we hope you feel the love, the new beginnings and the peace that comes with it. Knoxxi wishes you a birthday bigger than the last!"
51,"In the simplest calm, it is our desire to put a smile on your face with a spring in your step. Jump for joy on this awesome birthday. With love, Knoxxi. "
52,"You are extraordinary. Believe it and be it as the stars align for your beautiful birthday. Cheers to fun, from knoxxi."
53,A celebration as important as yours deserves fabulous music! Dance into new chapters. Knoxxi wishes you an elegant birthday.
54,"Ushering you into abundant grace, strength, prosperity opportunities dipped in gold. From knoxxi to you on this spectacular day."
55,"We launch a rocket for you today! The countdown is on, happy birthday to you. Discover all of life's hidden treasures. Love from Knoxxi. "
56,"A confetti showering everything new and sweet. Have a splendid day, live like never before, keep looking forward in strength. From the team at Knoxxi. "
57,"You mean the world to us, and on this day knoxxi says you deserve a cake with a cherry on top. Happy birthday. "
58,"Team Knoxxi wishes you a birthday never to be forgotten, packed with pleasure with your very best years yet. Have a spectacular birthday."
59,"Today knoxxi celebrates the birthday of a very special star in the Knoxxi Universe. Hey! don't forget the older stars shine the brightest and that star is you. Happy birthday, keep shining."
60,"A massive birthday just for you, with memories of gold, love and joy. We say smile wide as the day goes by. Happy birthday from all your friends at knoxxi."
61,"From knoxxi to you, a birthday filled with the very best, do whatever feels right and all special moments in life will be yours to keep! Smile bright "
62,"It is our wish that this super birthday is sprinkles of pure joy and utter bliss. From Knoxxi, a birthday wish with love and positivity. "
63,"We gift you bubbles each holding special wishes, pop them and inhale greatness. Hold on tight and fly real high. Knoxxi wishes you the limitless sky."
64,"Our birthday wish is to keep your boat afloat, dance the waves and feel the sun. Another addition is more priceless than none. Knoxxi says a massive birthday to a wonderful client."
65,"The higher the waves the better you surf! May today bring joy and opportunities, crystal clear hope and peace. A happy birthday in all ways, from Knoxxi to you."
66,"Smell the flowers, feel the breeze, be grateful for another 365. From knoxxi, age is just a number but let it count. "
67,"With love from the knoxxi team, a birthday is as priceless as the rarest gem. Once gone never to return. May today be your biggest self discovery. Have a superb day. "
68,Our smiles from ear to ear can't hide our joy as we celebrate you. We at knoxxi wish you a splendid joy filled birthday celebration! Make memories.
69,There are many reasons to stop living but birthdays ensure otherwise. Blow out those candles and start living again. Happy birthday from knoxxi to you.
70,"Gentle, glorious and calm. Our three presents for you on this day. Happy birthday from knoxxi."
71,"The best is yet to come, we hope smiles find their into your heart as you celebrate this day. A magnificent birthday from all of us at Knoxxi, with everything more and nothing less."
72,"Birthdays are like flowers blooming in a season.  From knoxxi to you, we wish upon all the goodness of mother earth in abundance, a fabulous day for a fabulous soul. Happy birthday!"
73,"We could blow out your beautiful candles with you if we could. Knoxxi sends birthday love, extraordinary well wishes and baskets of joy!"
74,Making you beam with joy is our goal today. May your light shine bright. A crispy crunchy birthday from Knoxxi to you!  Take a bite.
75,"We love you, being a star in our constellation means we stand with you today. Drawing the best patterns in your world. keep being exclusive and bright, happy birthday and cheers to more years. Love Knoxxi."
76,"Shake of the yesterdays, look forward to the tomorrows. But today is yours to keep. Happy birthday from knoxxi to you. "
77,"With excitement we say, slice that cake, take that drink and dance into the sunset like never before. Life just showed you love and so shall we. With love and support, Knoxxi."
78,"You make us better each day, today we give back the love. Wishing you the coziest of birthdays full of warmth and grace. From Knoxxi to you."
79,"Sit back, relax, feel light and do right. You do too much , take the day off and enjoy birthday showers on this wonderful day. From all your friends at knoxxi. "
80,"Knoxxi sends many hugs with a hip-hip- hurray! Live passionately, marvelous decades lie ahead. Happy birthday "
81,"Happy birthday to a bundle of joy, like jingle bells we chime in celebration . May the universe decorate your tree once more with a new star at the very top! From all of us at knoxxi. "
82,"Knoxxi wishes you a birthday of new beginnings, may this doorway lead to greater desires and accomplishments , just make a wish and let it come alive. Live happy, live like never before."
83,A wonderful client deserves beautiful love. Our hopes are that your silent dreams become the loudest realities through the beautiful lense of optimism. Happy birthday from Knoxxi. 
84,"A new , a new page. Scribbles of hope, love and light, bring to life all tiny dreams. Keep dreaming big and enjoy this wish from the team at Knoxxi."
85,"Simmer into the birthday glow, as treasures fill your chest, may the day be worth more than diamonds. A happy birthday from Knoxxi to you."
86,Beyond a client is a friend.  Knoxxi embraces your growth today. Cheers to soothing celebratory birthday. With love from all your wonderful friends at knoxxi. 
87,"Little moments in life matter, with knoxxi we say happy birthday as you taste each flavour of the day, don't miss a single moment. Life comes in stages, with a million more to go. Wishing you a glamorous birthday. "
88,Sweetest things come in small quantities. we hope today's 24 hours fill you up to the core! A satisfying birthday wish from Knoxxi to you. 
89,May this beautiful birthday make headlines on your calendar! Have a spectacular birthday full of love extending from everyone at Knoxxi. 
90,"Another journey round the sun, a new ticket for the next. We hope this new ride is bump free, smooth and jolly good. Knoxxi wishes you an incredible birthday."
91,"Today is all about you, we wish you all the best pearls from the ocean floor. The next chapter shall be as unique as you, embrace the new adventure with love from your friends at knoxxi. "
92,"You have a special place in our hearts, we rejoice as we wish you a birthday filled with happiness. Love from Knoxxi. "
93,"May this birthday bring new ideas, new dreams, new ambitions and a steer in the right direction.  Cheers to an exquisite birthday, from everyone at Knoxxi. "
94,"Joy is s necessity, let it accompany you today and the many years ahead. Happy birthday to a special subscriber. knoxxi loves you."
95,Magic just isn't for children and babies. Unleash the magic in you on this spontaneous birthday! Rule the day with joy and laughter. A bright wish from Knoxxi to you. 
96,"A million stars cannot dim your light. We wish you peace, longevity, good health and a graceful life. From knoxxi with love, we say happy birthday. "
97,"It is our wish that the new birthed today shall grow in happiness and appreciation. You are super, live it a million times "
98,"With enormous love from Knoxxi we wish you a birthday worthy of remembrance, graced in joy , peace and hope for the coming years, cheers!"
99,Special days require special things. It is our wish that the desires of your heart remain aflame in goodness and faith. Embrace the best version of yourself from this day forth. May your uniqueness shine bright. With love from everyone at knoxxi.
100,"Additions always bring growth, may today increase your smiles, decrease your worries, level up your excitement and dim those negative energy bulbs. Bloom bigger, it's all about you today! Happy birthday ,with loads of love, knoxxi."