Message No.,Message 
1,"Good night... as the sun says bye, tomorrow it shall surely rise. Let your dreams awaken with it while you sleep the tiredness away. From knoxxi. "
2,"Good night...Castaway today's worries, what was achieved and what wasn't.  Tomorrow holds many more opportunities ! SMILE and sleep tight. From knoxxi."
3,"Good night... darkness is not the end. Keep hope alive, tomorrow promises better. Sleep tight soldier. Knoxxi."
4,"Good night... as you lay those aching muscles to rest, remember to keep those dreams up and active. Sweet success awaits. Have a wonderful sleep. From knoxxi. "
5,"Good night... we see your strides, healthy living is a graceful reward to the body. Treat it with care so it stands tall tomorrow.  From knoxxi. "
6,"Good night... there is good in bad, let today not tell you otherwise. The stars still twinkle at night. The universe is in support of you. Never give up. From Knoxxi. "
7,Good night... whew! wipe those oceans of sweat away and give yourself a break. A pat on the shoulder a new tap into the future.  A good rest for the continuous battle. From all at knoxxi. 
8,"Good night... time speaks a lot, and time says stop. Enough was made today, tomorrow you shall be granted new grace. Have a beautiful night. From knoxxi. "
9,"Good night... kiss the bad dreams goodbye, tonight new ones shall fly by. Always remain hopeful, the night is not the end, it is only a portion of it. Love from Knoxxi. "
10,"Good night... shining star, we saw your struggle, your score board is still towering. Rest but don't throw in the towel, jubilation is closer than you think. A restful night to a dear subscriber.  From knoxxi. "
11,"Good night... you did your best today, tomorrow is a new slate. Sleep with zero worries. Lots of love from Knoxxi. "
12,"Good night... as the night deepens so should your focus on the days ahead. Shake off the bad vibes, tomorrow brings new opportunities. From knoxxi with love. "
13,"Good night... rest the night away as it should be, even the buzzing bees go to sleep, be no exception. Sleep tight sleepy head. Love from Knoxxi. "
14,"Good night... sometimes the day is filled with dips and crashing rocks, let the night shift those boulders away. Tomorrow will be as smooth as fine sand. From team Knoxxi with love."
15,"Good night... sleep tight, the night is full of peace, let positive thoughts fuel a positive tomorrow. With eyes closed envision a brighter future. Sleep tight, with love from us at Knoxxi."
16,"Good night... just as you take charge of the day let the night be on your terms, flood it with smiles and have a great sleep. From knoxxi with love. "
17,"Good night... darkness reminds us of light, but remember each day starts with dawn. Do not be discouraged, morning is near. Recharge and get ready to try again. We at knoxxi wish you a peaceful night."
18,"Good night...close your eyes and take deep breaths, yesterday is just as good as dead but tomorrow comes with new life. Sail into a calm night. From knoxxi with love. "
19,Good night... the night is here to absorb the stress from today. Stretch and huddle peacefully under your sheets. The moon and stars are signs of hope in darkness. Tomorrow is excited to meet you. From us here at knoxxi.
20,"Good night... don't weigh your options, don't fight sleep, good energy requires a healthy happy body. Rejuvenate and brace up for tomorrow's sprint. With love from Knoxxi. "
21,"Good night... tired from the long day? Sleep is the best medicine for your body, turn off those devices and take a time out. Sleep tight from knoxxi with love. "
22,"Good night... never be against yourself, before success comes failure as night before day. Look up and ahead as you look out for tomorrow. From us as knoxxi, sleep well."
23,"Good night... tomorrow is the start of something great, don't be told otherwise. The stars and moon will make way for the sun. With lots of love from Knoxxi. "
24,"Good night... worry less, shake of today's hitches and give yourself a break. Snuggle into a peaceful night. From knoxxi with love. "
25,"Good night... a peaceful, loving and forgiving heart deserves the sweetest siestas. Rest your heart, many more people to love tomorrow.  From us at knoxxi."
26,"Good night... self love is important, it is beyond giving yourself a spa day and a pat on the back. A good night's sleep makes the inner you feel loved. From knoxxi with love. "
27,"Good night... darkness fails to capture your dreams when you dreams extend into tomorrow.  Build a solid mindset ready for tomorrow.  Everything counts.  With love, sleep tight from knoxxi. "
28,"Good night... count your blessings and say a prayer, a chance to see tomorrow is the greatest gift from heaven. From knoxxi with love, sleep tight."
29,"Good night... they say the silence of the night allows the best thoughts.  We hope you dig deep for those innermost dreams, dust them off and allow tomorrow do its job. Sleep tight in peacefulness. From knoxxi with love. "
30,"Good night... when the sun sets, all negatives shrivel to the ground. Be encouraged, a new dawn is just hours away! Golden rays bring positivity.  Drift off into the night, as you await the wake of tomorrow. Lots of love from Knoxxi. "
31,Good night... let the stars remind you of hope in dark times. As tiny as they are they still sparkle with beauty. Brighter days are ahead. From knoxxi with love. 
32,Good night... building a future means visualising it first. What is better than a goodnight of futuristic dreams? Rest up and dream more. From knoxxi with love. 
33,"Good night... allow your thoughts about today  trickle out, new ones come in the morning. Create room for greater ideas not holding back to yesterdays. With knoxxi with love. "
34," Good night... fear not the darkness, it only means a new day gradually approaches. Be expectant. From knoxxi with love.  "
35,"Good night... what ever happened, however the day went, make sure you don't hold onto it as much as you yearn tomorrow. From knoxxi with love. "
36,Good night... tonight  is a token of your hard work. Congratulations for not giving up today! Hold on tight and smile bright. From knoxxi with love. 
37,Good night... great memories are processed when you sleep. Don't miss out on retaining today's victories. From knoxxi with love. 
38,"Good night... sleep tight, don't fight what you couldn't get right. Tomorrow is just in sight. From knoxxi with love."
39,Good night... may the beauty of the night paint a photograph of brilliance for tomorrow. From knoxxi with love. 
40,Good night...you are a day closer to your dreams don't forget to nap with a victorious smile. Feel it before being it. From knoxxi with love. 
41,"Good night... chapters don't end when the day ends, it only means you get to flip the page..Get ready to write tomorrow as it presents itself. From knoxxi with love, we wish you a beautiful night."
42,"Good night... if nature retires at sundown it's because it prepares to wake up energized tomorrow morning. You too are nature, gather that energy. With love from Knoxxi. "
43,"Good night... slide into the peace of the night. No disturbance, no weariness, just thoughts of abundance and gratefulness. Sleep tight. With love from Knoxxi. "
44,"Good night... today is history, as you prepare a launch into tomorrow don't forget, history still writes itself. So focus on you, build your peace with each passing moment. From knoxxi with love. "
45,"Good night... the night is like a boat on the ocean, don't rock it too hard, allow it sail with the wind. Unwind all worries of the day, your boat awaits. From knoxxi with love.  Sleep while sailing into tomorrow.  "
46,"Good night... grab a book, write your next goal. It gives you something to dream about. From knoxxi with love. "
47,"Good night... just reminding you of how special you are, a droplet in our cloud. You surely make it rain. Smile as you rest your sleepy head. From knoxxi with love. "
48,Good night... add a sprinkle of positive thoughts as you lay down. It seasons your tomorrow. From knoxxi with love. 
49,"Good night... if your day ended in tears and sadness chin up, tears have many meanings, we wish you a puddle of joy for tomorrow. From knoxxi with love. "
50,Good night... very few people get to make a wish with the stars. Shoot up yours and the universe shall receive it.Hold onto faith and make a wish for a happier tomorrow. From knoxxi with love.
51,Good night... with the sunset goes the days sweat.  Heave a sigh of relief and rest your head. From knoxxi with love. 
52,"Good night... there are 24 hours in a day but within that day is night, don't miss a full experience. Get a beautiful nights sleep till the clock resets. From knoxxi with love. "
53,"Good night... had a bad day? A little frustration here and there? Worry less, the birds struggle all day but rest their little wings when the sun goes down. Do same and be at peace. From knoxxi with love. "
54,"Good night... tuck away the worries of today, just like time goes by they too have said goodbye. A little note from knoxxi to you."
55,"Good night... draft three goals for tomorrow, awaken that fighting spirit and win those battles. From knoxxi with love, rest your sleepy head."
56,"Good night... another day of being a champion, snuggle in with a smile. Your resilience is unmatched.  Tomorrow hold more treasures. From knoxxi with love. "
57,"Good night... from the moon, stars and us, we say great job on being a winner today. We see your strides. Keep being amazing. From knoxxi with love enjoy the wonderful night."
58,"Good night... if 365 days is equivalent to 1 year. That simply means perspective is everything. Be the bigger you from your very own eyes. Today was great, settle into the night with bigger hopes for tomorrow.  From knoxxi with love. "
59,"Good night... say a prayer, heaven is near. Don't be weary don't be shy, the universe is in support of you and tomorrow shall be it's gift to you. From knoxxi with love, sleep tight."
60,"Good night... winners sleep with thoughts of victory. Be a winner tomorrow, while dreaming big tonight.From knoxxi with love"
61,"Good night... start you night with a reflection, be thankful for today's blessings and end it with a new direction and tomorrow's lessons.  Life is truly beautiful.  Sleep tighter than the screw in your doorknob. From knoxxi with love. "
62,"Good night... count your blessings even if the day was hard. Always remember it could have been worse. Drift away into a dreamland of peace and zero worries. From the team at Knoxxi, we wish you a beautiful night."
63,Good night... yesterday's never change but positive thoughts for tomorrow makes your 'today' different. Sleep softly in hopefulness. From knoxxi with love. 
64,"Good night... dreams are meant to grow, water them each night with determination and plans. Watch it blossom into magical tomorrows. With love from all of us at knoxxi, wishing you a dreamy night."
65,"Good night... sleep with peace and never with anger, let forgiveness wash away all the hurts and disappointments. Tomorrow is a day flooding with joy. Have a great night. From us at knoxxi with love."
66,Good night... tomorrow guarantees new opportunities. Make sure you sleep with wonderful expectations. Life is yours to live. From knoxxi with love. 
67,"Good night... doing the best matters, don't beat yourself up with what went down the drain. Tomorrow is full of moments to be great. With love from us at knoxxi, sleep tight."
68,"Good night... wishing you a remarkable night, sway away into dreamland, rejuvenate with energy for an efficient tomorrow. From knoxxi with love. "
69,"Good night... shut your eyes to the darkness, enjoy the brightness of the coming tomorrows. In the dark, light finds it's path. From knoxxi with love. "
70,"Good night... may the night remind you of hope, because the stars don't feel intimidated by the big dark sky. Have a lovely night, you are a wonderful star. From knoxxi with love. "
71,Good night... you owe yourself a restful night as you seek to pursue a greater tomorrow. Unwind but don't rewind what the wind blew away. Like a feather dance lightly into the night. From knoxxi with love. 
72,"Good night... be fair to yourself, understanding that life has no specific balance. You carried what you could today, sleep with less baggage. From knoxxi with love. "
73,"Good night... you are what you say you are. Speak goodness into the night, so your stars align in accordance.  Blessing your beautiful tomorrow today. From knoxxi with all the love."
74,"Good night... with every cloud comes a silver lining, may the stars reflect the goodness of today. A new cloud awaits your glow with the sunrise. From knoxxi with love."
75,"Good night... say goodbye to the bad day, open your arms to the easy night, silence and good dreams. From knoxxi with love. "
76,Good night... what happened today will matter less tomorrow. Don't waddle in it. Relive the good moments and let the bad fade into the night. From knoxxi with love. 
77,"Good night... whatever you think stays in your head like a buzzing bee. Brew positive thoughts so your tomorrow is greeted by greatness. Sleep tight, with love from Knoxxi. "
78,"Good night... when the sun sets it takes the day away, allow the night to introduce new things. Sweet dreams. From us at knoxxi with love. "
79,"Good night... the day is full of movements, from north to south, east to west. At night find your center, peaceful and quiet with no stumbles. From knoxxi with love sleep tight. "
80,"Good night... just as the sun goes to sleep, the blanket of night is pulled over. Sleep with hopes because the sun shall surely rise again. From knoxxi with love. "
81,"Good night... the night arrives with cool and calm, it means let go of those worries that burn the soul. Melt away into the dawn-like reflection. Where everything is dreams and beautiful memories. From knoxxi with love. "
82,"Good night... like a baby sleep soundly with zero worries, unlock that peace by sleeping with ease. Hopes of tomorrow become a reality called today. From knoxxi with love. "
83,"Good night... the birds silence their voices and await a new awakening. So should you lay your body down to rest till the morning comes with its best. From knoxxi with love, sleep tight."
84,"Good night... the stars have set the mood, it's all up to you. Let the burdens of today be at bay while your hopes and dreams anchor you for tomorrow.  Have a wonderful night. From knoxxi with love. "
85,"Good night... say bye, to things that made you sigh a hundred times at a time. The night is meant to reset all those things so that tomorrow starts on a better note. From knoxxi with love. "
86,"Good night... sometimes the night brings old dreams to light. Take time to appreciate them, the universe just might have something special for you. With love from Knoxxi. "
87,"Good night... and say a short prayer, two or three  lines are enough to make you feel alright. The earth hears, get some rest and wake up to answered prayers tomorrow.  From knoxxi with love. "
88,"Good night... all over the world it is either night or day, embrace your night because daylight surely will burst through with new life and dreams to live. From the team at Knoxxi wishing you a calm night."
89,"Good night... why the worry? why so weary? if you are teary wipe them off because life in itself seems scary. Smile like a winner, when tomorrow comes you would have already won. Sleep softly all tears away. From knoxxi with love. "
90,"Good night... count the three or ten, the stars shall come out all over again. To bid you farewell into a journey of peaceful memories. With love from Knoxxi. "
91,"Good night... hope doesn't just come in the morning, it is decided at night when all is silent and bare. Stay hopeful for tomorrow's sake. From knoxxi with love. "
92,"Good night...with the moon lighting up the sky, set your time right. Scribble your goals for tomorrow, it's never too late to shine. From knoxxi with love. "
93,"Good night... same day different setting. Let your night be the beginning of your tomorrow, everything changes when you wish upon a star. Believe it while you don't see it. Greater days lie ahead."
94,"Good night... sleep with the beautiful memories gathered from the day. The good things matter, don't go to bed with smiling at them first. From knoxxi with love. "
95,"Good night... sometimes the day is hard, unfair and it hurts. But one thing the night brings is peace, when your mind goes to sleep and packs away everything just so you wake up better than you went to bed. Keep trusting. From knoxxi with love, a peaceful night from us to you."
96,"Good night... life is in stages, even the big dreams undergo change. Worry less of today, refocus as you lay your head. Tomorrow will be there to try again. From knoxxi with love. "
97,"Good night... things can get messy, that is why you get to sleep. So you wake up when it is all cleaned up. Love the night, it is a redemption. From knoxxi with love. "
98,"Good night... say no more, transfer those words into deep sleep. Where they will dance till morning light. Sleep and wake up bright. From knoxxi with love.  "
99,"Good night... count your blessings, not exaggerated worries, nighttime is for rest, you passed today, it was yet another test.  Sleep till the sun peeps hi! From knoxxi with love. "
100,"Good night... get a routine for the night, something that reminds you of how excellently you managed the day regardless of struggles. That way, each night will feel more than just deserving. It shall be magical. From knoxxi with love have a wonderful rest."
101,"Good night... sleep tight, don't let worries of the day bite. The sun shall greet you with a smile, telling you it is alright.  From knoxxi with love. "
102,"Good night... we hope the day was productive, even if it wasn't do not be disheartened. Tomorrow comes to make a difference.  With love from Knoxxi. "
103,"Good night... what are the highlights of the day, the singing birds, laughing children or just the smell of fresh air? At least you to sun say hi and bye, you are special. From knoxxi with love. "
104,"Good night... as the whispers of the night draw you to sleep, we wish upon you thoughts of gold, so that tomorrow remains precious as you walk through. From knoxxi with love. "
105,"Good night... let today fade away without dismay. Tomorrow will be a merrier, brighter day. From us at knoxxi with love, sleep tight. "
106,"Good night... struggles are bound in everyday, but when night comes it means the day has ended. Lay down and smile, another battle was won by you and not just anyone. Have a relaxing night. From knoxxi with love. "
107,"Good night... to win big, you have to play big, think big and be big. Brace up for a big win when tomorrow comes.  With all the love, knoxxi. "
108,"Good night... today was another chance at life, the journey continues tomorrow.  Be ready when it comes, for now take a break.  Let your dreams take you far from worries. From knoxxi with love."
109,Good night... allow sleep find you in the calmness of the night. The sun rises with rays of hope. Be there to catch them. From knoxxi with love. 
110,"Good night... people may not always understand you, at night it is the conversations you have with yourself which carry through the next day. Speak good and gold. You matter even when others think otherwise. Knoxxi with love."
111,"Good night... be at peace with yourself even when you messed up the day. You will wake up to yourself tomorrow, you need to be happy to see you. Put a smile on your face and kiss the day goodbye. From knoxxi, sending you all the love. "
112,"Good night... the bigger you dream, the wider you smile. Snuggle in for a smiley night. With love from Knoxxi. "
113,"Good night... till the morning sun beams over the hills, be at peace in the calmness of the night. From knoxxi with love. "
114,Good night... writing down tomorrow's wins helps your mind form a jubilation song. Dance to it through the day because the night already made you great.  From us at knoxxi with love. 
115,"Good night... at night everything goes to rest, the sun and winds and birds of the sky, but night revives the moon and stars and birds that glide in the silence of the night. Time and season means everything, start another chapter tomorrow, be inspired to write it right. From knoxxi with love. "
116,"Good night... when loved ones are far or near we love to still say goodnight to our dears.  From knoxxi we wish you a pleasant night, because you are dear to us. Live tomorrow because  yesterday is near. Lots of love."
117,"Good night... unlace those shoes, take a rest, ensure you've had dinner. Your bed await to greet the tired you. A moment for you to congratulate today's you for trying. Get some rest because tomorrow is another lucky charm. From knoxxi with love, have a memorable night."
118,"Good night... never forget how long it took to build you. Many elements each day add up to make a new you, accept today and be grateful for it's pieces. Your puzzle continues tomorrow. Rest your head and worry less of the missing pieces. From us at knoxxi with love."
119,"Good night... the beauty of the night is in the slumber it delivers. Take advantage of beauty sleep as it draws near. From us to you, love from Knoxxi. "
120,"Good night... rest if for the body, after a rollercoaster day. Let that ride come to a halt, tomorrow comes in a package of good, happy and bright. From knoxxi with love.  "
121,"Good night... like birds of the sky rest your wings, when tomorrow comes, we shall take flight. From knoxxi with love. "
122,"Good night... you are wonderful, beautiful and valuable.  Walk with grace when day breaks. Sleep in peace, your dreams shall be more than just real. From knoxxi with love. "
123,"Good night... let the stars light the way to your dreams, a place where a better tomorrow lies. With love from Knoxxi. "
124,Good night... saying goodbye never seems right but welcoming tomorrow's opportunities makes a good night wish worthwhile.  From knoxxi to you with love.
125,"Good night... fly with the eagles, raise standards to meet incredible altitudes. The sky indeed is the limit. Love from Knoxxi. "
126,"Good night... see you tomorrow, we are excited for another day to say good morning with love from us to you. From the entire team at Knoxxi. "
127,Good night... the world is unique and so are you. One in a seven billion! Run your race and keep shining bright. From knoxxi with love  sleep tighter tonight. 
128,"Good night... it is ok to feel uneasy but it is not okay to be dim when you were made to sparkle. Find your shine in the tiny stars, the sun shall magnify your day tomorrow.  From knoxxi with love. "
129,Good night... search your heart to bring out the best in yourself. Focus on your goodness and the world will love you. From knoxxi with love. 
130,Good night... the sun waves goodbye behind the hills. Giving you a well deserving break. Shut your sleepy eyes. Today's goodbye will be tomorrow's blue skies. From knoxxi with all the love.
131,"Good night... silence is necessary for the mind to rest. The night brings this and more. Ease up and give your mind a treat. Sleep tight, from knoxxi with love. "
132,"Good night... whatever lies in your heart deserves a chance to shine with the morning sun. Gather those aspirations, bless them with tonight and live them proudly tomorrow.  From knoxxi with love. "
133,"Good night... gentle to bed, gentle to rise makes your day a splash of ocean breeze. Get your portion of calm when the sun awakes, enjoy tonight as it makes its way. With love from Knoxxi. "
134,"Good night... the sun says 'goodbye farewell, i may sink now but shall arise tomorrow. Get some rest and be on standby to pass the test of another 24 hours'. From knoxxi with love, hubble into a glorious night."
135,"Good night... today becomes the past, with the night comes a chance to be thankful, not troubled, happy and not sad because your accomplishments made headlines. The future is yours to make. From knoxxi with love. "
136,Good night... why obey the ticking clock but not your conscience? If your inner self says one great thing made the day good then it was good. You can only accomplish things one at a time. Rest up and suit up for the coming of tomorrow. From knoxxi with love. 
137,"Good night... the twinkling stars shine their light, over your dreams and wishes. Focus your thoughts on the magic of the night and be awakened by  mornings brighter light. Sleep with hope. Have a beautiful night from knoxxi with love. "
138,"Good night... each dark sky is a season of rest. A mini vacation for the ever working body and mind. Simmer into a luxurious night, the day awaits on standby. From knoxxi with love. "
139,"Good night... to conquer is to rule, to succeed is to plan. Free the mind from all cluster, allow the night lay out blueprints for tomorrow's win. With love from all of us at knoxxi. "
140,"Good night... the heavens speak in clear messages, one of those are the glittering sky with the moon and stars. Reminding you of hope to shine. From knoxxi with love. "
141,"Good night... say bye to the sad day, the night is here to lessen that burden of worry. Sleep it away. From knoxxi with love. "
142,"Good night... beauty sleep comes to those who free their spirits, hold onto nothing and just enjoy the luck of being back in bed. Sweet dreams. From knoxxi with love. "
143,"Good night... no one leaves life alive, this means even the night time is valuable. Put it to good use, journal a thing or two. Smile and shut your eyes. From knoxxi with love. "
144,Good night... say a wish and speak great things because the night listens and whispers it to the day at a time called dawn. Own your tomorrow ahead of time. From knoxxi with love. 
145,"Good night... darkness doesn't always mean danger. It symbolises a rebirth, a new you and a new day. Be cleansed of today's shoot. You will sparkle tomorrow. From knoxxi with love. "
146,"Good night... rest your sleepy head knowing that today's best was done. Tomorrow is next , a whole new day with a new test. From knoxxi with love. "
147,"Good night... don't count imaginary sheep when you can't sleep. Count your dreams, slowly watch your beam. keep those goals and they shall unfold. From knoxxi with love.  "
148,"Good night... let the night not be full of fright, nor worries over protection. Sleep comes to keep you safe from fears , and tucks your worries safely away. Smile with sleep. "
149,Good night... counted your blessings yet? Start now and doze off with a grateful heart. 
150,"Good night... sleep tight, smile wide, today was gloriously worth the fight. Resting time is here. Snooze with joy. With love from Knoxxi. "
151,"Good night... imaginary doors open wide allowing your wonderful dream dance around in memory lane. Don't miss their early arrival tonight, good things are found in resting. From knoxxi with love. "
152,Good night... the night sky is proof that darkness does not stop light from shining. Be a winning beam when you lay down to rest. Greater things are upcoming. With all the love from Knoxxi. 
153,Good night... may you dreams stand akimbo. In position for a brand new tomorrow.  With love from Knoxxi. 
154,Good night... what you do at night is equally important as you did in the day. Tune the mind for a beautiful soft night. Where hope burns in the center of your eager heart. With love from Knoxxi. 
155,"Good night... today's victories will always be known, let the night paint your sky with great energetic peace. Tomorrow will always be a mystery.  From knoxxi with love. "
156,Good night... as the day fades so shall your cares. The night makes no room for extra baggage so sleep light. From knoxxi with love. 
157,"Good night... your last steps should be as firm as your first. The night is as powerful as the day, it sets all nature to rest. With all the love from us at knoxxi. "
158,"Good night... we wish you a night of calm and good sleep,when you awaken, an energy of boundless passion. With all the love from Knoxxi. "
159,Good night... go to bed at peace even if the day was hard. The night promises things shall be easier. Simply shut your eyes. From the team at Knoxxi with love. 
160,Good night... let gratitude be you pillow. Reposition it till it feels right. You can never be mistaken. Sleep with calm. From knoxxi with love.
161,"Good night... say a prayer as you lay to rest. Yesterday is gone, never to return again. Set your night at peace with no such thing as regrets. With love "
162,"Good night... as sleep makes it's journey to you, shake off the negatives from today. Smile the night away. From knoxxi with love. "
163,Good night... a moment of reflection helps you keep up with yourself. A minute or two of self appreciation conquers it all. You made it to nightfall in one glorious piece. Don't take it for granted.
164,Good night... say a prayer as the night gets closer.  Your hopes and dreams await tomorrow to rise again. From knoxxi with love  sleep tight.
165,"Good night... the hustle is over, your muscles too must rest. A  new chapter draws nearer, in preparedness and street you will be ready to conquer. From knoxxi with love. "
166,Good night... write down five great things about today. Make sure they made you smile. Now that is progress. Sleep tight. With love from Knoxxi. 
167,Good night... count the stars if you have trouble sleeping. They magically take away your worries and bring dreamland closer. From knoxxi with love. 
168,"Good night... like a child giggle till peace engulfs you. You were excellent today, don't think less. From knoxxi with love "
169,Good night... lay your head and shine brighter than the stars. Great thoughts find you best when you keep glowing. From knoxxi with love. 
170,"Good night... however bad today was, smile at the night.  It come with peace and tranquility. Enjoy a beautiful night. From knoxxi with love. "
171,"Good night... be brave, be you, a winner as you take your much needed rest. With love and support from knoxxi. "
172,"Good night... the day is over, everything else is stored in memory look forward to tomorrow as you sleep. From knoxxi with love. "
173,"Good night.. sleep tight, golden rays of hope shall embrace you after the night is over. From knoxxi with love. "
174,"Good night... say a prayer, not just a mere wish. The universe responds to the deep calling through prayer. Don't ever give up. From knoxxi with love. "
175,"Good night... for many, the night is scary and dark. Let it craft a space of hope and peace for you from this day forth. From knoxxi with all the love."
176,Good night... things may be slow but keep moving. Newer chances come by in the morning. With love from Knoxxi sleep tight.
177,Good night...let the whispers of the night reassure you of greater days ahead. Sleep with a smile. You wake up differently when you do. From knoxxi with love. 
178,"Good night... widen your horizon, elevate your dreams. The bigger the dream the greater the satisfaction. From knoxxi with love. "
179,Good night... winners spend the night planning for the day they are yet to see. Be a winner while the moon is out. From knoxxi with love. 
180,"Good night ... you are great, conquered today. We have no doubt you will conquer tomorrow. With love and support from knoxxi. "
181,"Good night... the night is here, the day says bye, your dreams welcome you and the moon grants hope. Sleep tight, look forward to tomorrow.  From all of us at knoxxi with love. "
182,"Good night... may your mind keep the best memories of the day, so they energize the newer bigger dreams. Have a lovely night. From knoxxi with love. "
183,"Good night... in all things keep your head up! Don't beat yourself up too much, reach for your stars but remember even the moon isn't always full. Sleep peacefully, from knoxxi with. "
184,"Good night... give up fight when the sun has set. You did your very best, now simply rest. When tomorrow comes you can take flight. From knoxxi with love. "
185,"Good night... let go of the things you can't change. The day is done and over, aspire for new beginnings.  From knoxxi with love. "
186,"Good night... super size your dreams, smile wide as you sleep. The future you anticipates greatness like never before."
187,"Good night... when you sleep your brain does alot of work. Make it easier by getting to bed earlier. Don't be too late to retire for the day, even the sun did. From knoxxi with love. "
188,"Good night... keep your dreams alive by believing in them, just as a child belives in magic and fairies.  No room for fears. Just good cheer! With love from knoxxi."
189,Good night... pat yourself on the shoulder. A job well done is what today was. Time to rest. With all the love from Knoxxi. 
190,Good night... if you had one chance to dream you certainly will dream big. Be limitless. From knoxxi with love. 
191,Good night... a new page will be flipped tomorrow.  Grab your tools and deliver the best work. Let your imagination rise tonight. From knoxxi with love. 
192,"Good night... have you ever worried about what tomorrow holds? Well, the night comes with peace so you do not worry.  Rest best as you worry less. From knoxxi with love. "
193,Good night... be brave as you prepare for another tomorrow.  Shut your eyes and smile away. A tired day has come to an end. From knoxxi with love. 
194,Good night... you are capable of outshining the moon and stars. Be wonderful as your dreams shine through. From knoxxi with love. 
195,"Good night... no need to delve into new  streams of work at night. Rest the body, mind and soul. Await what tomorrow holds. From knoxxi with love. "
196,"Good night... worry not about the flaws of today, tomorrow brings a new chance with a brand new day. With all the love from Knoxxi. "
197,"Good night... dream of goals, opportunities and success. The day will feel more than just new. From knoxxi with love. "
198,"Good night... shut your eyes, see a new light. That is how you find a new direction.  From us at knoxxi wishing you a beautiful night. "
199,Good night... the night reminds us of the importance of light. We lay at rest with hopes of the sun paving way for our sight. Be expectant. From all of us at knoxxi.
200,"Good night ... draw rge curtain of the day with positive thoughts for the night. It doesn't matter how difficult tomorrow might be, the good energy will cast it like a boat at sea. From knoxxi with love.  "